Clube do Livro - R Para Ciência de Dados (2ª Edição)
…
O data frame pinguins

## instalação de pacotes

#install.packages("tidyverse")

Um data frame é uma coleção tabular (formato de tabela) de variáveis (nas colunas) e observações (nas linhas):

pinguins contém 344 observações;

# consegue visualizar parte do conteúdo usando ::

dados::pinguins

# A tibble: 344 × 8
   especie        ilha  comprimento_bico profundidade_bico comprimento_nadadeira
   <fct>          <fct>            <dbl>             <dbl>                 <int>
 1 Pinguim-de-ad… Torg…             39.1              18.7                   181
 2 Pinguim-de-ad… Torg…             39.5              17.4                   186
 3 Pinguim-de-ad… Torg…             40.3              18                     195
 4 Pinguim-de-ad… Torg…             NA                NA                      NA
 5 Pinguim-de-ad… Torg…             36.7              19.3                   193
 6 Pinguim-de-ad… Torg…             39.3              20.6                   190
 7 Pinguim-de-ad… Torg…             38.9              17.8                   181
 8 Pinguim-de-ad… Torg…             39.2              19.6                   195
 9 Pinguim-de-ad… Torg…             34.1              18.1                   193
10 Pinguim-de-ad… Torg…             42                20.2                   190
# ℹ 334 more rows
# ℹ 3 more variables: massa_corporal <int>, sexo <fct>, ano <int>
…
Exercícios (1.5.5)

1. O data frame milhas que acompanha o pacote dados contém observações 234 coletadas pela Agência de Proteção Ambiental dos EUA em modelos de 38 carros. Quais variáveis em milhas são categóricas? Quais variáveis são numéricas? (Dica: digite ?milhas para ler a documentação do conjunto de dados.) Como você pode ver essas informações ao executar milhas?

Para a visualização podemos utilizar os comandos listados no início do capítulo

dados::milhas

# A tibble: 234 × 11
   fabricante modelo     cilindrada   ano cilindros transmissao tracao cidade
   <chr>      <chr>           <dbl> <int>     <int> <chr>       <chr>   <int>
 1 audi       a4                1.8  1999         4 auto(l5)    d          18
 2 audi       a4                1.8  1999         4 manual(m5)  d          21
 3 audi       a4                2    2008         4 manual(m6)  d          20
 4 audi       a4                2    2008         4 auto(av)    d          21
 5 audi       a4                2.8  1999         6 auto(l5)    d          16
 6 audi       a4                2.8  1999         6 manual(m5)  d          18
 7 audi       a4                3.1  2008         6 auto(av)    d          18
 8 audi       a4 quattro        1.8  1999         4 manual(m5)  4          18
 9 audi       a4 quattro        1.8  1999         4 auto(l5)    4          16
10 audi       a4 quattro        2    2008         4 manual(m6)  4          20
# ℹ 224 more rows
# ℹ 3 more variables: rodovia <int>, combustivel <chr>, classe <chr>
…
